{
  "apps" : [
    {
      "name"              : "scoreNode",
      "script"            : "/opt/bitnami/apps/nodejs/htdocs/index.js",
      "error_file"        : "/opt/bitnami/apps/nodejs/htdocs/logs/scoreNode.error.log",
      "out_file"          : "/opt/bitnami/apps/nodejs/htdocs/logs/scoreNode.out.log",
      "log_date_format"   : "YYYY-MM-DD HH:mm Z",
      "args"              : "['-x -- --prod']",
      "watch"             : false,
      "ignore_watch"      : [
        "/opt/bitnami/apps/nodejs/htdocs/node_modules",
        "/opt/bitnami/apps/nodejs/htdocs/.git",
        "/opt/bitnami/apps/nodejs/htdocs/.idea",
	"/opt/bitnami/apps/nodejs/htdocs/logs"
      ],
      "exec_interpreter" : "babel-node",
      "exec_mode"        : "fork",
      "args"              : "['--presets es2015,stage-2']",
    }
  ]
}